[gd_scene load_steps=5 format=1]

[ext_resource path="res://scripts/Game.gd" type="Script" id=1]
[ext_resource path="res://scenes/Background.tscn" type="PackedScene" id=2]
[ext_resource path="res://scenes/Planet.tscn" type="PackedScene" id=3]
[ext_resource path="res://scenes/SpaceShip.tscn" type="PackedScene" id=4]

[node name="Game" type="Node2D"]

script/script = ExtResource( 1 )

[node name="Background" parent="." instance=ExtResource( 2 )]

[node name="Planet" parent="." instance=ExtResource( 3 )]

editor/display_folded = true
transform/pos = Vector2( 800, 450 )

[node name="SpaceShip" parent="." instance=ExtResource( 4 )]

transform/pos = Vector2( 799.467, 312.754 )


